{
  "R7s66J9HyuWpOKjOU856iDZK2lKuBDLIGkXrjdfA7cw=": {
    "AppId": "R7s66J9HyuWpOKjOU856iDZK2lKuBDLIGkXrjdfA7cw=",
    "AppSecret": "esPJTyGFtFDXVd3amY+PucOHrWvsVhpfGvSsVt9cvKizyGNK1uGZTXLdbCQH6UIP"
  }
}